#load	BP0	dB0	BP1	dB1	BP2	dB2	BP3	dB3	DP0	dD0	DP1	dD1	DP2	dD2	DP3	dD3	BKC	dBC	DSC	dDC	TC	dTC	BBR	dBBR	BR	dBR	BbDC	dBbDC	BbVNF	dBbVNF	BbBW	dBbBW	BbP	dBbP	BbLP	dBbLP	SC	dSC	RC	dRC	RP0	dR0	RP1	dR1	RP2	dR2	RP3	dR3	AD0	dA0	AD1	dA1	AD2	dA2	AD3	dA3
50	0.623566	0.619094	0.731133	0.686558	0.742417	0.679835	0.891099	0.854334	0.000000	0.000000	5.000000	9.297096	5.000000	9.297096	0.000000	0.000000	596.676000	569.817319	2.239000	4.163240	598.915000	572.784048	0.836590	0.775955	0.794000	0.735171	0.000000	0.000000	0.000000	0.000000	0.000000	0.000000	0.488000	0.608887	0.306000	0.517620	39015.000000	247.166025	2266223.400000	52338.684782	50.000000	30.990321	45.000000	29.236210	45.000000	29.236210	90.000000	18.594193	0.080693	0.057593	0.036957	0.028128	0.040770	0.026339	0.036380	0.012994
90	6.288295	3.676930	7.187301	3.969636	8.037072	3.937509	10.897674	4.909699	10.000000	18.594193	0.000000	0.000000	5.000000	9.297096	11.428571	10.664380	5923.199000	3147.098195	5.352000	6.709445	5928.552000	3150.991855	9.507003	4.480734	8.923000	4.336608	0.000000	0.000000	0.000000	0.000000	0.000000	0.000000	0.519000	0.643611	8.404000	3.989601	45040.000000	1192.930134	2040167.000000	96454.980868	40.000000	30.364189	80.000000	24.792257	75.000000	24.985196	68.571429	23.511040	0.049531	0.030985	0.156188	0.109567	0.092114	0.051386	0.099587	0.054132
130	11.660038	5.010776	13.101283	5.117535	14.706426	5.001513	17.791664	5.646618	2.500000	4.648548	2.500000	4.648548	5.000000	9.297096	4.444444	8.264086	10602.197000	4001.730742	18.072000	24.720857	10620.269000	4021.784022	16.295607	5.451501	15.381000	5.304947	0.000000	0.000000	0.000000	0.000000	0.000000	0.000000	0.482000	0.894176	14.899000	4.647196	48735.000000	1651.993415	1827365.700000	131492.039630	47.500000	29.765231	67.500000	27.761862	75.000000	24.985196	65.555556	27.795475	0.130859	0.094111	0.120788	0.069827	0.146416	0.072939	0.128280	0.065976
170	19.641194	5.097103	21.042286	4.907275	23.163500	5.087844	26.910261	5.083813	7.619048	9.536456	8.666667	9.655197	18.214286	15.343507	10.119048	8.788028	17263.930000	3998.783821	50.274000	45.428911	17314.204000	4023.229846	25.156738	5.092658	23.966000	5.025264	0.000000	0.000000	0.000000	0.000000	0.000000	0.000000	0.486000	0.491716	23.480000	4.787384	49445.000000	1655.617116	1579404.100000	131706.506412	52.380952	27.906511	61.333333	26.461210	61.785714	23.878677	69.880952	23.160141	0.269527	0.194352	0.201092	0.099067	0.244331	0.150718	0.201743	0.097094
210	25.895005	4.940624	27.369232	4.724396	29.022041	4.260092	33.318284	4.188682	15.833333	18.829436	8.000000	14.875354	12.666667	11.041140	14.734848	11.749295	22045.523000	3796.452043	32.981000	27.125079	22078.505000	3807.819971	31.668271	4.442274	30.222000	4.367791	0.000000	0.000000	0.000000	0.000000	0.000000	0.000000	0.426000	0.536913	29.796000	4.128467	49140.000000	2121.096750	1392760.600000	119301.799857	74.166667	24.054958	62.000000	29.045057	77.333333	19.243966	75.265152	19.250432	0.238604	0.095302	0.178078	0.080954	0.266024	0.137980	0.200315	0.079080
250	30.345348	4.673084	31.836776	4.900660	33.944862	4.755914	37.247259	4.639666	17.500000	19.661155	8.456349	6.029884	19.416667	13.859389	18.063645	12.892477	25829.160000	3873.004287	66.087000	35.357348	25895.246000	3878.148594	35.982896	4.721569	34.550000	4.705603	0.000000	0.000000	0.000000	0.000000	0.001000	0.001859	0.235000	0.436964	34.314000	4.505573	49895.000000	1911.349250	1268523.100000	129848.123535	62.500000	27.061134	81.543651	17.808191	70.583333	19.714069	61.936355	22.434322	0.359577	0.163724	0.342242	0.135749	0.314252	0.177356	0.272365	0.140218
