#load	BP0	dB0	BP1	dB1	BP2	dB2	BP3	dB3	DP0	dD0	DP1	dD1	DP2	dD2	DP3	dD3	BKC	dBC	DSC	dDC	TC	dTC	BBR	dBBR	BR	dBR	BbDC	dBbDC	BbVNF	dBbVNF	BbBW	dBbBW	BbP	dBbP	BbLP	dBbLP	SC	dSC	RC	dRC	RP0	dR0	RP1	dR1	RP2	dR2	RP3	dR3	AD0	dA0	AD1	dA1	AD2	dA2	AD3	dA3
50	0.632479	0.615859	0.726577	0.688356	0.733579	0.683072	0.906899	0.848281	0.000000	0.000000	5.000000	9.297096	5.000000	9.297096	0.000000	0.000000	600.477000	568.453751	2.239000	4.163240	602.716000	571.421837	0.841425	0.774085	0.799000	0.733200	0.000000	0.000000	0.000000	0.000000	0.000000	0.000000	0.488000	0.608887	0.311000	0.516633	39040.000000	246.290203	2266187.000000	51999.907911	50.000000	30.990321	45.000000	29.236210	45.000000	29.236210	90.000000	18.594193	0.071535	0.053718	0.036957	0.028128	0.045250	0.030531	0.036384	0.012994
90	6.694386	4.303407	7.536548	4.292090	8.731037	4.397770	10.851403	5.259482	10.000000	18.594193	0.000000	0.000000	7.000000	9.621983	8.250000	9.553115	6306.473000	3559.048996	5.888000	6.618603	6312.361000	3563.099885	9.804756	4.921912	9.177000	4.736735	0.000000	0.000000	0.000000	0.000000	0.000000	0.000000	0.519000	0.643611	8.658000	4.414175	44765.000000	1290.184050	2025898.400000	113278.061583	40.000000	30.364189	80.000000	24.792257	73.000000	24.488237	81.750000	19.329242	0.050435	0.031614	0.155730	0.095479	0.107843	0.057977	0.106090	0.059915
130	12.018342	5.214902	13.088903	5.248763	14.687730	5.417523	18.305939	5.983017	0.000000	0.000000	2.500000	4.648548	5.000000	9.297096	3.750000	6.972822	10960.630000	4199.269110	12.807000	23.813583	10973.437000	4218.524446	16.500849	5.655273	15.645000	5.596837	0.000000	0.000000	0.000000	0.000000	0.000000	0.000000	0.481000	0.894381	15.164000	4.903848	48580.000000	1744.245836	1815893.600000	138155.154531	50.000000	30.990321	67.500000	27.761862	75.000000	24.985196	66.250000	27.729411	0.174822	0.124540	0.126330	0.064174	0.142049	0.076907	0.121061	0.063038
170	19.119838	4.596222	20.470769	4.355912	22.567908	4.579390	26.263878	4.746477	3.333333	6.198064	11.166667	12.736230	14.375000	12.256123	10.928571	9.038515	16988.246000	3584.560113	39.199000	36.557796	17027.444000	3602.024406	24.602813	4.659931	23.364000	4.583127	0.000000	0.000000	0.000000	0.000000	0.000000	0.000000	0.490000	0.492339	22.874000	4.421549	49805.000000	1711.297203	1582287.800000	119104.942340	56.666667	29.290909	68.833333	24.602360	65.625000	23.323305	69.071429	22.987343	0.240592	0.170872	0.196831	0.083803	0.268315	0.179998	0.191913	0.096271
210	26.825424	5.743581	28.335144	5.738574	30.390644	5.365183	33.981284	5.342463	15.000000	11.732746	7.142857	13.281566	13.484848	12.066256	17.801587	15.063884	22877.982000	4642.679762	43.385000	29.512245	22921.366000	4660.180138	32.406537	5.477054	31.136000	5.453203	0.000000	0.000000	0.000000	0.000000	0.000000	0.000000	0.429000	0.536026	30.707000	5.198683	50095.000000	2486.167483	1358663.300000	144036.615479	75.000000	19.187322	62.857143	28.609369	66.515152	23.516738	72.198413	20.878013	0.307000	0.084042	0.184160	0.104027	0.290296	0.142795	0.203644	0.072047
250	29.904843	4.702237	30.896053	4.577166	32.869375	4.349670	36.540360	4.446874	10.000000	12.396128	16.666667	19.047776	13.500000	12.068554	22.915751	14.202710	25078.266000	3493.753943	45.294000	32.530846	25123.558000	3494.196286	35.137602	4.475878	33.732000	4.453576	0.000000	0.000000	0.000000	0.000000	0.000000	0.000000	0.235000	0.436964	33.497000	4.343763	51155.000000	2046.039578	1277231.100000	122850.458373	70.000000	24.792257	73.333333	24.093743	66.500000	23.512967	67.084249	19.271603	0.335542	0.142413	0.321924	0.117676	0.270929	0.153663	0.239342	0.119312
